<?xml version="1.0" encoding="UTF-8" standalone="no"?>
<!-- Created with Inkscape (http://www.inkscape.org/) -->

<svg
   xmlns:dc="http://purl.org/dc/elements/1.1/"
   xmlns:cc="http://creativecommons.org/ns#"
   xmlns:rdf="http://www.w3.org/1999/02/22-rdf-syntax-ns#"
   xmlns:svg="http://www.w3.org/2000/svg"
   xmlns="http://www.w3.org/2000/svg"
   xmlns:sodipodi="http://sodipodi.sourceforge.net/DTD/sodipodi-0.dtd"
   xmlns:inkscape="http://www.inkscape.org/namespaces/inkscape"
   width="16"
   height="15.999997"
   viewBox="0 0 4.2333332 4.2333327"
   version="1.1"
   id="svg872"
   inkscape:version="0.92.3 (2405546, 2018-03-11)"
   sodipodi:docname="favicon.svg">
  <defs
     id="defs866" />
  <sodipodi:namedview
     id="base"
     pagecolor="#ffffff"
     bordercolor="#666666"
     borderopacity="1.0"
     inkscape:pageopacity="0.0"
     inkscape:pageshadow="2"
     inkscape:zoom="28.889164"
     inkscape:cx="17.935371"
     inkscape:cy="4.4660169"
     inkscape:document-units="px"
     inkscape:current-layer="layer1"
     showgrid="true"
     units="px"
     fit-margin-top="0"
     fit-margin-left="0"
     fit-margin-right="0"
     fit-margin-bottom="0"
     inkscape:window-width="1920"
     inkscape:window-height="1040"
     inkscape:window-x="0"
     inkscape:window-y="20"
     inkscape:window-maximized="1">
    <inkscape:grid
       type="xygrid"
       id="grid1439"
       originx="-1.6491699e-08"
       originy="-1.7512121e-06" />
  </sodipodi:namedview>
  <metadata
     id="metadata869">
    <rdf:RDF>
      <cc:Work
         rdf:about="">
        <dc:format>image/svg+xml</dc:format>
        <dc:type
           rdf:resource="http://purl.org/dc/dcmitype/StillImage" />
        <dc:title></dc:title>
      </cc:Work>
    </rdf:RDF>
  </metadata>
  <g
     inkscape:label="Layer 1"
     inkscape:groupmode="layer"
     id="layer1"
     transform="translate(-7.4650297,-43.396873)">
    <rect
       style="opacity:1;vector-effect:none;fill:#34c69a;fill-opacity:1;stroke:none;stroke-width:0.05644445;stroke-linecap:butt;stroke-linejoin:miter;stroke-miterlimit:4;stroke-dasharray:none;stroke-dashoffset:0;stroke-opacity:1;marker:none"
       id="rect820"
       width="1.0583334"
       height="1.0583334"
       x="7.4650297"
       y="43.396873"
       inkscape:export-xdpi="95.999992"
       inkscape:export-ydpi="95.999992" />
    <rect
       y="43.396873"
       x="8.5233641"
       height="1.0583334"
       width="1.0583334"
       id="rect822"
       style="opacity:1;vector-effect:none;fill:#8aadf7;fill-opacity:1;stroke:none;stroke-width:0.05644445;stroke-linecap:butt;stroke-linejoin:miter;stroke-miterlimit:4;stroke-dasharray:none;stroke-dashoffset:0;stroke-opacity:1;marker:none"
       inkscape:export-xdpi="95.999992"
       inkscape:export-ydpi="95.999992" />
    <rect
       style="opacity:1;vector-effect:none;fill:#ecece0;fill-opacity:1;stroke:none;stroke-width:0.03406454;stroke-linecap:butt;stroke-linejoin:miter;stroke-miterlimit:4;stroke-dasharray:none;stroke-dashoffset:0;stroke-opacity:1;marker:none"
       id="rect854"
       width="1.0583334"
       height="1.0583334"
       x="9.5816965"
       y="43.396873"
       inkscape:export-xdpi="95.999992"
       inkscape:export-ydpi="95.999992" />
    <rect
       y="44.455208"
       x="7.4650297"
       height="1.0583334"
       width="1.0583334"
       id="rect870"
       style="opacity:1;vector-effect:none;fill:#e2ef86;fill-opacity:1;stroke:none;stroke-width:0.03406454;stroke-linecap:butt;stroke-linejoin:miter;stroke-miterlimit:4;stroke-dasharray:none;stroke-dashoffset:0;stroke-opacity:1;marker:none"
       inkscape:export-xdpi="95.999992"
       inkscape:export-ydpi="95.999992" />
    <rect
       y="44.455208"
       x="8.5233641"
       height="1.0583334"
       width="1.0583334"
       id="rect872"
       style="opacity:1;vector-effect:none;fill:#84ce2a;fill-opacity:1;stroke:none;stroke-width:0.05644445;stroke-linecap:butt;stroke-linejoin:miter;stroke-miterlimit:4;stroke-dasharray:none;stroke-dashoffset:0;stroke-opacity:1;marker:none"
       inkscape:export-xdpi="95.999992"
       inkscape:export-ydpi="95.999992" />
    <rect
       style="opacity:1;vector-effect:none;fill:#f6ec7a;fill-opacity:1;stroke:none;stroke-width:0.05644445;stroke-linecap:butt;stroke-linejoin:miter;stroke-miterlimit:4;stroke-dasharray:none;stroke-dashoffset:0;stroke-opacity:1;marker:none"
       id="rect874"
       width="1.0583334"
       height="1.0583334"
       x="9.5816965"
       y="44.455208"
       inkscape:export-xdpi="95.999992"
       inkscape:export-ydpi="95.999992" />
    <rect
       y="45.513542"
       x="7.4650297"
       height="1.0583334"
       width="1.0583334"
       id="rect876"
       style="opacity:1;vector-effect:none;fill:#8aadf7;fill-opacity:1;stroke:none;stroke-width:0.05644445;stroke-linecap:butt;stroke-linejoin:miter;stroke-miterlimit:4;stroke-dasharray:none;stroke-dashoffset:0;stroke-opacity:1;marker:none"
       inkscape:export-xdpi="95.999992"
       inkscape:export-ydpi="95.999992" />
    <rect
       style="opacity:1;vector-effect:none;fill:#69b4e1;fill-opacity:1;stroke:none;stroke-width:0.05644445;stroke-linecap:butt;stroke-linejoin:miter;stroke-miterlimit:4;stroke-dasharray:none;stroke-dashoffset:0;stroke-opacity:1;marker:none"
       id="rect878"
       width="1.0583334"
       height="1.0583334"
       x="9.5816965"
       y="45.513542"
       inkscape:export-xdpi="95.999992"
       inkscape:export-ydpi="95.999992" />
    <rect
       style="opacity:1;vector-effect:none;fill:#c5c1ee;fill-opacity:1;stroke:none;stroke-width:0.03406454;stroke-linecap:butt;stroke-linejoin:miter;stroke-miterlimit:4;stroke-dasharray:none;stroke-dashoffset:0;stroke-opacity:1;marker:none"
       id="rect880"
       width="1.0583334"
       height="1.0583334"
       x="8.5233641"
       y="45.513542"
       inkscape:export-xdpi="95.999992"
       inkscape:export-ydpi="95.999992" />
    <rect
       style="opacity:1;vector-effect:none;fill:#ecece0;fill-opacity:1;stroke:none;stroke-width:0.03406454;stroke-linecap:butt;stroke-linejoin:miter;stroke-miterlimit:4;stroke-dasharray:none;stroke-dashoffset:0;stroke-opacity:1;marker:none"
       id="rect1441"
       width="1.0583334"
       height="1.0583334"
       x="7.4650297"
       y="46.571873"
       inkscape:export-xdpi="95.999992"
       inkscape:export-ydpi="95.999992" />
    <rect
       y="46.571873"
       x="9.5816965"
       height="1.0583334"
       width="1.0583334"
       id="rect1443"
       style="opacity:1;vector-effect:none;fill:#84ce2a;fill-opacity:1;stroke:none;stroke-width:0.05644445;stroke-linecap:butt;stroke-linejoin:miter;stroke-miterlimit:4;stroke-dasharray:none;stroke-dashoffset:0;stroke-opacity:1;marker:none"
       inkscape:export-xdpi="95.999992"
       inkscape:export-ydpi="95.999992" />
    <rect
       y="46.571873"
       x="8.5233641"
       height="1.0583334"
       width="1.0583334"
       id="rect1445"
       style="opacity:1;vector-effect:none;fill:#34c69a;fill-opacity:1;stroke:none;stroke-width:0.05644445;stroke-linecap:butt;stroke-linejoin:miter;stroke-miterlimit:4;stroke-dasharray:none;stroke-dashoffset:0;stroke-opacity:1;marker:none"
       inkscape:export-xdpi="95.999992"
       inkscape:export-ydpi="95.999992" />
    <rect
       y="43.396873"
       x="10.64003"
       height="1.0583334"
       width="1.0583334"
       id="rect1503"
       style="opacity:1;vector-effect:none;fill:#c5c1ee;fill-opacity:1;stroke:none;stroke-width:0.03406454;stroke-linecap:butt;stroke-linejoin:miter;stroke-miterlimit:4;stroke-dasharray:none;stroke-dashoffset:0;stroke-opacity:1;marker:none"
       inkscape:export-xdpi="95.999992"
       inkscape:export-ydpi="95.999992" />
    <rect
       y="44.455208"
       x="10.64003"
       height="1.0583334"
       width="1.0583334"
       id="rect1505"
       style="opacity:1;vector-effect:none;fill:#8aadf7;fill-opacity:1;stroke:none;stroke-width:0.05644445;stroke-linecap:butt;stroke-linejoin:miter;stroke-miterlimit:4;stroke-dasharray:none;stroke-dashoffset:0;stroke-opacity:1;marker:none"
       inkscape:export-xdpi="95.999992"
       inkscape:export-ydpi="95.999992" />
    <rect
       y="45.513542"
       x="10.64003"
       height="1.0583334"
       width="1.0583334"
       id="rect1507"
       style="opacity:1;vector-effect:none;fill:#e2ef86;fill-opacity:1;stroke:none;stroke-width:0.03406454;stroke-linecap:butt;stroke-linejoin:miter;stroke-miterlimit:4;stroke-dasharray:none;stroke-dashoffset:0;stroke-opacity:1;marker:none"
       inkscape:export-xdpi="95.999992"
       inkscape:export-ydpi="95.999992" />
    <rect
       style="opacity:1;vector-effect:none;fill:#8aadf7;fill-opacity:1;stroke:none;stroke-width:0.05644445;stroke-linecap:butt;stroke-linejoin:miter;stroke-miterlimit:4;stroke-dasharray:none;stroke-dashoffset:0;stroke-opacity:1;marker:none"
       id="rect1509"
       width="1.0583334"
       height="1.0583334"
       x="10.64003"
       y="46.571873"
       inkscape:export-xdpi="95.999992"
       inkscape:export-ydpi="95.999992" />
  </g>
</svg>
